2013-06-22 15:47:32 ERROR - SQLSTATE[23000]: Integrity constraint violation: 1062 Duplicate entry '0' for key 'ali_trade_no_UNIQUE'

SQL: INSERT INTO `trades` (`user_id`, `my_trade_no`, `ali_trade_no`, `items_sum`, `trade_status`, `delivery_name`, `delivery_address`, `delivery_phone`, `pay_type`, `updated_at`, `created_at`) VALUES (?, ?, ?, ?, ?, ?, ?, ?, ?, ?, ?)

Bindings: array (
  0 => '1',
  1 => '2013062215473251',
  2 => 0,
  3 => 2,
  4 => 1,
  5 => '大A',
  6 => '辽宁省大连市甘井子区高新园区火炬路18号三星大厦A座1234号 116023',
  7 => '15112341234',
  8 => 1,
  9 => '2013-06-22 15:47:32',
  10 => '2013-06-22 15:47:32',
) in /Applications/AMPPS/www/laravel/laravel/database/connection.php on line 263
2013-06-22 16:08:59 ERROR - Use of undefined constant i - assumed 'i' in /Applications/AMPPS/www/laravel/laravel/view.php(386) : eval()'d code on line 356
2013-06-22 16:59:02 ERROR - SQLSTATE[42S22]: Column not found: 1054 Unknown column 'my_trade_id' in 'where clause'

SQL: SELECT * FROM `trades` WHERE `my_trade_id` = ?

Bindings: array (
  0 => '2013062216191388',
) in /Applications/AMPPS/www/laravel/laravel/database/connection.php on line 263
2013-06-22 16:59:37 ERROR - Trying to get property of non-object in /Applications/AMPPS/www/laravel/application/controllers/account.php on line 454
2013-06-22 17:00:47 ERROR - Call to a member function orders() on a non-object in /Applications/AMPPS/www/laravel/application/controllers/account.php on line 454
2013-06-22 17:03:53 ERROR - Call to a member function toJson() on a non-object in /Applications/AMPPS/www/laravel/application/controllers/account.php on line 456
2013-06-22 17:05:45 ERROR - Method [toJson] is not defined on the Query class. in /Applications/AMPPS/www/laravel/laravel/database/query.php on line 947
2013-06-22 17:06:42 ERROR - Method [toJson] is not defined on the Query class. in /Applications/AMPPS/www/laravel/laravel/database/query.php on line 947
2013-06-22 17:07:46 ERROR - Method [toJson] is not defined on the Query class. in /Applications/AMPPS/www/laravel/laravel/database/query.php on line 947
2013-06-22 17:16:31 ERROR - Method [toJson] is not defined on the Query class. in /Applications/AMPPS/www/laravel/laravel/database/query.php on line 947
2013-06-22 17:17:02 ERROR - Undefined variable: trade in /Applications/AMPPS/www/laravel/application/controllers/account.php on line 454
2013-06-22 17:17:04 ERROR - Undefined variable: trade in /Applications/AMPPS/www/laravel/application/controllers/account.php on line 454
2013-06-22 17:17:07 ERROR - Undefined variable: trade in /Applications/AMPPS/www/laravel/application/controllers/account.php on line 454
2013-06-22 17:17:25 ERROR - Method [toJson] is not defined on the Query class. in /Applications/AMPPS/www/laravel/laravel/database/query.php on line 947
2013-06-22 17:19:59 ERROR - Method [toArray] is not defined on the Query class. in /Applications/AMPPS/www/laravel/laravel/database/query.php on line 947
2013-06-22 17:20:26 ERROR - Call to a member function orders() on a non-object in /Applications/AMPPS/www/laravel/application/controllers/account.php on line 454
2013-06-22 17:20:54 ERROR - Call to a member function toArray() on a non-object in /Applications/AMPPS/www/laravel/application/controllers/account.php on line 456
2013-06-22 17:26:28 ERROR - Method [toArray] is not defined on the Query class. in /Applications/AMPPS/www/laravel/laravel/database/query.php on line 947
2013-06-22 17:29:05 ERROR - Call to a member function to_array() on a non-object in /Applications/AMPPS/www/laravel/application/controllers/account.php on line 457
2013-06-22 17:29:06 ERROR - Call to a member function to_array() on a non-object in /Applications/AMPPS/www/laravel/application/controllers/account.php on line 457
